{
  "$schema": "https://vega.github.io/schema/vega/v5.json",
  "description": "Data structure",
  "width": 600,
  "height": 1600,
  "padding": 5,
  "data": [
    {
      "name": "tree",
      "values": [{"name":"MDP","id":1},{"name":"Arena","id":2,"parent":1},{"name":"DoNothing","id":3,"parent":2},{"name":"next_state: Arena","id":4,"parent":3},{"name":"reward: -1.0","id":5,"parent":3},{"name":"MoveNorth","id":6,"parent":2},{"name":"next_state: NorthPort","id":7,"parent":6},{"name":"reward: -1.0","id":8,"parent":6},{"name":"MoveSouth","id":9,"parent":2},{"name":"next_state: SouthPort","id":10,"parent":9},{"name":"reward: -1.0","id":11,"parent":9},{"name":"MoveEast","id":12,"parent":2},{"name":"next_state: EastPort","id":13,"parent":12},{"name":"reward: -1.0","id":14,"parent":12},{"name":"MoveWest","id":15,"parent":2},{"name":"next_state: WestPort","id":16,"parent":15},{"name":"reward: -1.0","id":17,"parent":15},{"name":"MoveArena","id":18,"parent":2},{"name":"next_state: Arena","id":19,"parent":18},{"name":"reward: -1.0","id":20,"parent":18},{"name":"NorthPort","id":21,"parent":1},{"name":"DoNothing","id":22,"parent":21},{"name":"next_state: NorthPort","id":23,"parent":22},{"name":"reward: -1.0","id":24,"parent":22},{"name":"MoveArena","id":25,"parent":21},{"name":"next_state: Arena","id":26,"parent":25},{"name":"reward: -1.0","id":27,"parent":25},{"name":"SouthPort","id":28,"parent":1},{"name":"DoNothing","id":29,"parent":28},{"name":"next_state: SouthPort","id":30,"parent":29},{"name":"reward: -1.0","id":31,"parent":29},{"name":"MoveArena","id":32,"parent":28},{"name":"next_state: Arena","id":33,"parent":32},{"name":"reward: -1.0","id":34,"parent":32},{"name":"EastPort","id":35,"parent":1},{"name":"DoNothing","id":36,"parent":35},{"name":"next_state: EastPort","id":37,"parent":36},{"name":"reward: -1.0","id":38,"parent":36},{"name":"MoveArena","id":39,"parent":35},{"name":"next_state: Arena","id":40,"parent":39},{"name":"reward: -1.0","id":41,"parent":39},{"name":"Poke","id":42,"parent":35},{"name":"next_state: EndOfEpisode","id":43,"parent":42},{"name":"reward: -10.0","id":44,"parent":42},{"name":"WestPort","id":45,"parent":1},{"name":"DoNothing","id":46,"parent":45},{"name":"next_state: WestPort","id":47,"parent":46},{"name":"reward: -1.0","id":48,"parent":46},{"name":"MoveArena","id":49,"parent":45},{"name":"next_state: Arena","id":50,"parent":49},{"name":"reward: -1.0","id":51,"parent":49},{"name":"PokePlusLick","id":52,"parent":45},{"name":"next_state: EndOfEpisode","id":53,"parent":52},{"name":"reward: 10.0","id":54,"parent":52},{"name":"EndOfEpisode","id":55,"parent":1},{"name":"Restart","id":56,"parent":55},{"name":"next_state: Arena","id":57,"parent":56},{"name":"reward: 0.0","id":58,"parent":56}],
      "transform": [
        {
          "type": "stratify",
          "key": "id",
          "parentKey": "parent"
        },
        {
          "type": "tree",
          "method": "tidy",
          "size": [{"signal": "height"}, {"signal": "width"}],
          "separation": true,
          "as": ["y", "x", "depth", "children"]
        }
      ]
    },
    {
      "name": "links",
      "source": "tree",
      "transform": [
        { "type": "treelinks" },
        {
          "type": "linkpath",
          "orient": "horizontal",
          "shape": "orthogonal"
        }
      ]
    }
  ],

  "scales": [
    {
      "name": "color",
      "type": "linear",
      "range": {"scheme": "magma"},
      "domain": {"data": "tree", "field": "depth"},
      "zero": true
    }
  ],

  "marks": [
    {
      "type": "path",
      "from": {"data": "links"},
      "encode": {
        "update": {
          "path": {"field": "path"},
          "stroke": {"value": "#ccc"}
        }
      }
    },
    {
      "type": "symbol",
      "from": {"data": "tree"},
      "encode": {
        "enter": {
          "size": {"value": 500},
          "stroke": {"value": "#fff"}
        },
        "update": {
          "x": {"field": "x"},
          "y": {"field": "y"},
          "fill": {"scale": "color", "field": "depth"}
        }
      }
    },
    {
      "type": "text",
      "from": {"data": "tree"},
      "encode": {
        "enter": {
          "text": {"field": "name"},
          "fontSize": {"value": 23},
          "baseline": {"value": "middle"}
        },
        "update": {
          "x": {"field": "x"},
          "y": {"field": "y"},
          "dx": {"signal": "datum.children ? -15 : 15"},
          "align": {"signal": "datum.children ? 'right' : 'left'"}
        }
      }
    }
  ]
}
